<?xml version="1.0" encoding="utf-8"?>
<!-- Generator: Adobe Illustrator 16.0.0, SVG Export Plug-In . SVG Version: 6.00 Build 0)  -->
<!DOCTYPE svg PUBLIC "-//W3C//DTD SVG 1.1//EN" "http://www.w3.org/Graphics/SVG/1.1/DTD/svg11.dtd">
<svg version="1.1" id="Layer_1" xmlns="http://www.w3.org/2000/svg" xmlns:xlink="http://www.w3.org/1999/xlink" x="0px" y="0px"
	 width="30px" height="30px" viewBox="0 0 30 30" enable-background="new 0 0 30 30" xml:space="preserve">
<g>
	<linearGradient id="SVGID_1_" gradientUnits="userSpaceOnUse" x1="14.9995" y1="0.5" x2="14.9995" y2="29.5005">
		<stop  offset="0" style="stop-color:#662D91"/>
		<stop  offset="1" style="stop-color:#492482"/>
	</linearGradient>
	<path fill="url(#SVGID_1_)" d="M15,0.5C6.992,0.5,0.5,6.991,0.5,15S6.992,29.5,15,29.5c8.009,0,14.5-6.491,14.5-14.5
		S23.009,0.5,15,0.5z M22.5,16.874h-5.625V22.5h-3.75v-5.626H7.5v-3.75h5.625V7.5h3.75v5.625H22.5V16.874z"/>
</g>
</svg>
