<?xml version="1.0" encoding="utf-8"?>
<!-- Generator: Adobe Illustrator 16.0.0, SVG Export Plug-In . SVG Version: 6.00 Build 0)  -->
<!DOCTYPE svg PUBLIC "-//W3C//DTD SVG 1.1//EN" "http://www.w3.org/Graphics/SVG/1.1/DTD/svg11.dtd">
<svg version="1.1" xmlns="http://www.w3.org/2000/svg" xmlns:xlink="http://www.w3.org/1999/xlink" x="0px" y="0px" width="170px"
	 height="50px" viewBox="0 0 170 50" enable-background="new 0 0 170 50" xml:space="preserve">
<g id="_x31_170px_grid">
</g>
<g id="Background">
</g>
<g id="Blocks">
</g>
<g id="Content">
</g>
<g id="Signup" display="none">
</g>
<g id="Login">
	<g>
		<rect id="Facebook_8_" fill="#3B5998" width="50" height="50"/>
		<path id="Facebook_7_" fill="#FFFFFF" d="M28.407,42.5V26.535h5.749l0.861-6.223h-6.609V16.34c0-1.801,0.537-3.028,3.308-3.028
			l3.535-0.002V7.745C34.638,7.669,32.54,7.5,30.099,7.5c-5.096,0-8.584,2.899-8.584,8.225v4.588h-5.763v6.223h5.763V42.5H28.407z"
			/>
	</g>
	<g>
		<rect id="Twitter_8_" x="60" fill="#55ACEE" width="50" height="50"/>
		<path id="Twitter_7_" fill="#FFFFFF" d="M102.5,14.146c-1.288,0.57-2.672,0.957-4.124,1.13c1.482-0.889,2.621-2.295,3.157-3.973
			c-1.388,0.823-2.924,1.421-4.56,1.742c-1.31-1.396-3.176-2.267-5.242-2.267c-3.965,0-7.181,3.215-7.181,7.18
			c0,0.563,0.063,1.111,0.187,1.637c-5.968-0.299-11.259-3.158-14.801-7.503c-0.618,1.061-0.972,2.295-0.972,3.61
			c0,2.491,1.268,4.689,3.195,5.977c-1.178-0.037-2.285-0.36-3.252-0.897c0,0.029,0,0.06,0,0.09c0,3.479,2.475,6.382,5.76,7.041
			c-0.603,0.164-1.237,0.252-1.892,0.252c-0.463,0-0.913-0.045-1.351-0.129c0.914,2.853,3.565,4.929,6.708,4.986
			c-2.458,1.927-5.554,3.074-8.918,3.074c-0.58,0-1.151-0.034-1.713-0.101c3.178,2.038,6.952,3.227,11.007,3.227
			c13.208,0,20.43-10.941,20.43-20.431c0-0.312-0.007-0.621-0.021-0.929C100.32,16.85,101.537,15.585,102.5,14.146z"/>
	</g>
	<g>
		<rect id="Google_x2B__4_" x="120" fill="#DD4B38" width="50" height="50"/>
		<g>
			<g>
				<path fill="#FFFFFF" d="M138.616,22.799v4.402c0,0,4.271-0.006,6.01-0.006c-0.941,2.854-2.406,4.408-6.01,4.408
					c-3.647,0-6.494-2.957-6.494-6.604c0-3.647,2.847-6.604,6.494-6.604c1.929,0,3.174,0.677,4.316,1.622
					c0.914-0.914,0.838-1.045,3.164-3.242c-1.975-1.797-4.6-2.893-7.48-2.893c-6.14,0-11.116,4.977-11.116,11.116
					c0,6.139,4.977,11.116,11.116,11.116c9.177,0,11.42-7.99,10.676-13.317C147.12,22.799,138.616,22.799,138.616,22.799z
					 M158.647,23.019v-3.853h-2.751v3.853h-3.962v2.752h3.962v3.962h2.751v-3.962h3.853v-2.752H158.647z"/>
			</g>
		</g>
	</g>
</g>
<g id="Navbar">
</g>
<g id="Layer_6" display="none">
</g>
</svg>
